{
  "levels": [
    {
      "level": "default",
      "mode": "default",
      "rows": [
        [
          {
            "strings": [
              "q"
            ]
          },
          {
            "strings": [
              "w"
            ]
          },
          {
            "strings": [
              "e",
              "é",
              "ě",
              "è",
              "ê",
              "ë",
              "ę",
              "ė",
              "ē"
            ]
          },
          {
            "strings": [
              "r",
              "ř"
            ]
          },
          {
            "strings": [
              "t",
              "ť"
            ]
          },
          {
            "strings": [
              "z",
              "ž",
              "ź",
              "ż"
            ]
          },
          {
            "strings": [
              "u",
              "ú",
              "ů",
              "û",
              "ü",
              "ù",
              "ū"
            ]
          },
          {
            "strings": [
              "i",
              "í",
              "î",
              "ï",
              "ì",
              "į",
              "ī"
            ]
          },
          {
            "strings": [
              "o",
              "ó",
              "ö",
              "ô",
              "ò",
              "õ",
              "œ",
              "ø",
              "ō"
            ]
          },
          {
            "strings": [
              "p"
            ]
          }
        ],
        [
          {
            "leftOffset": 0.5,
            "strings": [
              "a",
              "á",
              "à",
              "â",
              "ä",
              "æ",
              "ã",
              "å",
              "ā"
            ]
          },
          {
            "strings": [
              "s",
              "š",
              "ß",
              "ś"
            ]
          },
          {
            "strings": [
              "d",
              "ď"
            ]
          },
          {
            "strings": [
              "f"
            ]
          },
          {
            "strings": [
              "g"
            ]
          },
          {
            "strings": [
              "h"
            ]
          },
          {
            "strings": [
              "j"
            ]
          },
          {
            "strings": [
              "k"
            ]
          },
          {
            "rightOffset": 0.5,
            "strings": [
              "l"
            ]
          }
        ],
        [
          {
            "action": "levelSwitch",
            "iconName": "keyboard-shift-symbolic",
            "level": "shift",
            "width": 1.5
          },
          {
            "strings": [
              "y",
              "ý",
              "ÿ"
            ]
          },
          {
            "strings": [
              "x"
            ]
          },
          {
            "strings": [
              "c",
              "č",
              "ç",
              "ć"
            ]
          },
          {
            "strings": [
              "v"
            ]
          },
          {
            "strings": [
              "b"
            ]
          },
          {
            "strings": [
              "n",
              "ň",
              "ñ",
              "ń"
            ]
          },
          {
            "strings": [
              "m"
            ]
          },
          {
            "action": "delete",
            "iconName": "edit-clear-symbolic",
            "width": 1.5
          }
        ],
        [
          {
            "action": "levelSwitch",
            "label": "123",
            "level": "opt",
            "width": 1.5
          },
          {
            "action": "emoji",
            "iconName": "smile-symbolic"
          },
          {
            "strings": [
              ","
            ]
          },
          {
            "strings": [
              " "
            ],
            "width": 3
          },
          {
            "strings": [
              ".",
              "#",
              "!",
              ",",
              "?",
              "-",
              ":",
              "'",
              "@"
            ]
          },
          {
            "action": "languageMenu",
            "iconName": "keyboard-layout-symbolic"
          },
          {
            "iconName": "keyboard-enter-symbolic",
            "keyval": "0xff0d",
            "width": 1.5
          }
        ]
      ]
    },
    {
      "level": "shift",
      "mode": "latched",
      "rows": [
        [
          {
            "strings": [
              "Q"
            ]
          },
          {
            "strings": [
              "W"
            ]
          },
          {
            "strings": [
              "E",
              "É",
              "Ě",
              "È",
              "Ê",
              "Ë",
              "Ę",
              "Ė",
              "Ē"
            ]
          },
          {
            "strings": [
              "R",
              "Ř"
            ]
          },
          {
            "strings": [
              "T",
              "Ť"
            ]
          },
          {
            "strings": [
              "Z",
              "Ž",
              "Ź",
              "Ż"
            ]
          },
          {
            "strings": [
              "U",
              "Ú",
              "Ů",
              "Û",
              "Ü",
              "Ù",
              "Ū"
            ]
          },
          {
            "strings": [
              "I",
              "Í",
              "Î",
              "Ï",
              "Ì",
              "Į",
              "Ī"
            ]
          },
          {
            "strings": [
              "O",
              "Ó",
              "Ö",
              "Ô",
              "Ò",
              "Õ",
              "Œ",
              "Ø",
              "Ō"
            ]
          },
          {
            "strings": [
              "P"
            ]
          }
        ],
        [
          {
            "leftOffset": 0.5,
            "strings": [
              "A",
              "Á",
              "À",
              "Â",
              "Ä",
              "Æ",
              "Ã",
              "Å",
              "Ā"
            ]
          },
          {
            "strings": [
              "S",
              "Š",
              "SS",
              "Ś"
            ]
          },
          {
            "strings": [
              "D",
              "Ď"
            ]
          },
          {
            "strings": [
              "F"
            ]
          },
          {
            "strings": [
              "G"
            ]
          },
          {
            "strings": [
              "H"
            ]
          },
          {
            "strings": [
              "J"
            ]
          },
          {
            "strings": [
              "K"
            ]
          },
          {
            "rightOffset": 0.5,
            "strings": [
              "L"
            ]
          }
        ],
        [
          {
            "action": "levelSwitch",
            "iconName": "keyboard-shift-symbolic",
            "level": "default",
            "width": 1.5
          },
          {
            "strings": [
              "Y",
              "Ý",
              "Ÿ"
            ]
          },
          {
            "strings": [
              "X"
            ]
          },
          {
            "strings": [
              "C",
              "Č",
              "Ç",
              "Ć"
            ]
          },
          {
            "strings": [
              "V"
            ]
          },
          {
            "strings": [
              "B"
            ]
          },
          {
            "strings": [
              "N",
              "Ň",
              "Ñ",
              "Ń"
            ]
          },
          {
            "strings": [
              "M"
            ]
          },
          {
            "action": "delete",
            "iconName": "edit-clear-symbolic",
            "width": 1.5
          }
        ],
        [
          {
            "action": "levelSwitch",
            "label": "123",
            "level": "opt",
            "width": 1.5
          },
          {
            "action": "emoji",
            "iconName": "smile-symbolic"
          },
          {
            "strings": [
              ","
            ]
          },
          {
            "strings": [
              " "
            ],
            "width": 3
          },
          {
            "strings": [
              ".",
              "#",
              "!",
              ",",
              "?",
              "-",
              ":",
              "'",
              "@"
            ]
          },
          {
            "action": "languageMenu",
            "iconName": "keyboard-layout-symbolic"
          },
          {
            "iconName": "keyboard-enter-symbolic",
            "keyval": "0xff0d",
            "width": 1.5
          }
        ]
      ]
    },
    {
      "level": "opt",
      "mode": "locked",
      "rows": [
        [
          {
            "strings": [
              "1",
              "¹",
              "½",
              "⅓",
              "¼",
              "⅛"
            ]
          },
          {
            "strings": [
              "2",
              "²",
              "⅔"
            ]
          },
          {
            "strings": [
              "3",
              "³",
              "¾",
              "⅜"
            ]
          },
          {
            "strings": [
              "4",
              "⁴"
            ]
          },
          {
            "strings": [
              "5",
              "⅝"
            ]
          },
          {
            "strings": [
              "6"
            ]
          },
          {
            "strings": [
              "7",
              "⅞"
            ]
          },
          {
            "strings": [
              "8"
            ]
          },
          {
            "strings": [
              "9"
            ]
          },
          {
            "strings": [
              "0",
              "ⁿ",
              "∅"
            ]
          }
        ],
        [
          {
            "strings": [
              "@"
            ]
          },
          {
            "strings": [
              "#"
            ]
          },
          {
            "strings": [
              "$",
              "¢",
              "£",
              "€",
              "¥",
              "₱"
            ]
          },
          {
            "strings": [
              "%",
              "‰"
            ]
          },
          {
            "strings": [
              "&"
            ]
          },
          {
            "strings": [
              "-",
              "_",
              "–",
              "—",
              "·"
            ]
          },
          {
            "strings": [
              "+",
              "±"
            ]
          },
          {
            "strings": [
              "(",
              "<",
              "{",
              "["
            ]
          },
          {
            "strings": [
              ")",
              ">",
              "}",
              "]"
            ]
          },
          {
            "strings": [
              "/"
            ]
          }
        ],
        [
          {
            "action": "levelSwitch",
            "label": "=/<",
            "level": "opt+shift",
            "width": 1.5
          },
          {
            "strings": [
              "*",
              "†",
              "‡",
              "★"
            ]
          },
          {
            "strings": [
              "\"",
              "“",
              "”",
              "«",
              "»"
            ]
          },
          {
            "strings": [
              "'",
              "‘",
              "’",
              "‹",
              "›"
            ]
          },
          {
            "strings": [
              ":"
            ]
          },
          {
            "strings": [
              ";"
            ]
          },
          {
            "strings": [
              "!",
              "¡"
            ]
          },
          {
            "strings": [
              "?",
              "¿"
            ]
          },
          {
            "action": "delete",
            "iconName": "edit-clear-symbolic",
            "width": 1.5
          }
        ],
        [
          {
            "action": "levelSwitch",
            "label": "ABC",
            "level": "default",
            "width": 1.5
          },
          {
            "action": "emoji",
            "iconName": "smile-symbolic"
          },
          {
            "strings": [
              ","
            ]
          },
          {
            "strings": [
              " "
            ],
            "width": 3
          },
          {
            "strings": [
              ".",
              "…"
            ]
          },
          {
            "action": "languageMenu",
            "iconName": "keyboard-layout-symbolic"
          },
          {
            "iconName": "keyboard-enter-symbolic",
            "keyval": "0xff0d",
            "width": 1.5
          }
        ]
      ]
    },
    {
      "level": "opt+shift",
      "mode": "locked",
      "rows": [
        [
          {
            "strings": [
              "~"
            ]
          },
          {
            "strings": [
              "`"
            ]
          },
          {
            "strings": [
              "|"
            ]
          },
          {
            "strings": [
              "•",
              "♪",
              "♥",
              "♠",
              "♦",
              "♣"
            ]
          },
          {
            "strings": [
              "√"
            ]
          },
          {
            "strings": [
              "Π",
              "π"
            ]
          },
          {
            "strings": [
              "÷"
            ]
          },
          {
            "strings": [
              "×"
            ]
          },
          {
            "strings": [
              "¶",
              "§"
            ]
          },
          {
            "strings": [
              "∆"
            ]
          }
        ],
        [
          {
            "strings": [
              "£"
            ]
          },
          {
            "strings": [
              "¢"
            ]
          },
          {
            "strings": [
              "€"
            ]
          },
          {
            "strings": [
              "¥"
            ]
          },
          {
            "strings": [
              "^",
              "↑",
              "↓",
              "←",
              "→"
            ]
          },
          {
            "strings": [
              "_"
            ]
          },
          {
            "strings": [
              "=",
              "≠",
              "≈",
              "∞"
            ]
          },
          {
            "strings": [
              "{"
            ]
          },
          {
            "strings": [
              "}"
            ]
          },
          {
            "strings": [
              "\\"
            ]
          }
        ],
        [
          {
            "action": "levelSwitch",
            "label": "123",
            "level": "opt",
            "width": 1.5
          },
          {
            "strings": [
              "°",
              "′",
              "″"
            ]
          },
          {
            "strings": [
              "©"
            ]
          },
          {
            "strings": [
              "®"
            ]
          },
          {
            "strings": [
              "™"
            ]
          },
          {
            "strings": [
              "℅"
            ]
          },
          {
            "strings": [
              "["
            ]
          },
          {
            "strings": [
              "]"
            ]
          },
          {
            "action": "delete",
            "iconName": "edit-clear-symbolic",
            "width": 1.5
          }
        ],
        [
          {
            "action": "levelSwitch",
            "label": "ABC",
            "level": "default",
            "width": 1.5
          },
          {
            "action": "emoji",
            "iconName": "smile-symbolic"
          },
          {
            "strings": [
              "<",
              "‹",
              "≤",
              "«"
            ]
          },
          {
            "strings": [
              " "
            ],
            "width": 3
          },
          {
            "strings": [
              ">",
              "›",
              "≥",
              "»"
            ]
          },
          {
            "action": "languageMenu",
            "iconName": "keyboard-layout-symbolic"
          },
          {
            "iconName": "keyboard-enter-symbolic",
            "keyval": "0xff0d",
            "width": 1.5
          }
        ]
      ]
    }
  ],
  "locale": "cs",
  "name": "Czech"
}