{
  "levels": [
    {
      "level": "default",
      "mode": "default",
      "rows": [
        [
          {
            "height": 0.75,
            "keyval": "0xff09",
            "label": "Tab",
            "width": 2
          },
          {
            "action": "modifier",
            "height": 0.75,
            "keyval": "0xffe3",
            "label": "Ctrl",
            "width": 2
          },
          {
            "action": "modifier",
            "height": 0.75,
            "keyval": "0xffe9",
            "label": "Alt",
            "width": 2
          },
          {
            "height": 0.75,
            "iconName": "go-up-symbolic",
            "keyval": "0xff52"
          },
          {
            "height": 0.75,
            "iconName": "go-down-symbolic",
            "keyval": "0xff54"
          },
          {
            "height": 0.75,
            "iconName": "go-previous-symbolic",
            "keyval": "0xff51"
          },
          {
            "height": 0.75,
            "iconName": "go-next-symbolic",
            "keyval": "0xff53"
          }
        ],
        [
          {
            "strings": [
              "q"
            ]
          },
          {
            "strings": [
              "w"
            ]
          },
          {
            "strings": [
              "e"
            ]
          },
          {
            "strings": [
              "r"
            ]
          },
          {
            "strings": [
              "t"
            ]
          },
          {
            "strings": [
              "y"
            ]
          },
          {
            "strings": [
              "u",
              "ü",
              "û",
              "ù",
              "ú",
              "ū"
            ]
          },
          {
            "strings": [
              "i",
              "ı",
              "î",
              "ï",
              "ì",
              "í",
              "į",
              "ī"
            ]
          },
          {
            "strings": [
              "o",
              "ö",
              "ô",
              "œ",
              "ò",
              "ó",
              "õ",
              "ø",
              "ō"
            ]
          },
          {
            "strings": [
              "p"
            ]
          }
        ],
        [
          {
            "leftOffset": 0.5,
            "strings": [
              "a",
              "â"
            ]
          },
          {
            "strings": [
              "s",
              "ş",
              "ß",
              "ś",
              "š"
            ]
          },
          {
            "strings": [
              "d"
            ]
          },
          {
            "strings": [
              "f"
            ]
          },
          {
            "strings": [
              "g",
              "ğ"
            ]
          },
          {
            "strings": [
              "h"
            ]
          },
          {
            "strings": [
              "j"
            ]
          },
          {
            "strings": [
              "k"
            ]
          },
          {
            "rightOffset": 0.5,
            "strings": [
              "l"
            ]
          }
        ],
        [
          {
            "action": "levelSwitch",
            "iconName": "keyboard-shift-symbolic",
            "level": "shift",
            "width": 1.5
          },
          {
            "strings": [
              "z"
            ]
          },
          {
            "strings": [
              "x"
            ]
          },
          {
            "strings": [
              "c",
              "ç",
              "ć",
              "č"
            ]
          },
          {
            "strings": [
              "v"
            ]
          },
          {
            "strings": [
              "b"
            ]
          },
          {
            "strings": [
              "n"
            ]
          },
          {
            "strings": [
              "m"
            ]
          },
          {
            "action": "delete",
            "iconName": "edit-clear-symbolic",
            "width": 1.5
          }
        ],
        [
          {
            "action": "levelSwitch",
            "label": "123",
            "level": "opt",
            "width": 1.5
          },
          {
            "action": "emoji",
            "iconName": "smile-symbolic"
          },
          {
            "strings": [
              ","
            ]
          },
          {
            "strings": [
              " "
            ],
            "width": 3
          },
          {
            "strings": [
              ".",
              "#",
              "!",
              ",",
              "?",
              "-",
              ":",
              "'",
              "@"
            ]
          },
          {
            "action": "languageMenu",
            "iconName": "keyboard-layout-symbolic"
          },
          {
            "iconName": "keyboard-enter-symbolic",
            "keyval": "0xff0d",
            "width": 1.5
          }
        ]
      ]
    },
    {
      "level": "shift",
      "mode": "latched",
      "rows": [
        [
          {
            "height": 0.75,
            "keyval": "0xff09",
            "label": "Tab",
            "width": 2
          },
          {
            "action": "modifier",
            "height": 0.75,
            "keyval": "0xffe3",
            "label": "Ctrl",
            "width": 2
          },
          {
            "action": "modifier",
            "height": 0.75,
            "keyval": "0xffe9",
            "label": "Alt",
            "width": 2
          },
          {
            "height": 0.75,
            "iconName": "go-up-symbolic",
            "keyval": "0xff52"
          },
          {
            "height": 0.75,
            "iconName": "go-down-symbolic",
            "keyval": "0xff54"
          },
          {
            "height": 0.75,
            "iconName": "go-previous-symbolic",
            "keyval": "0xff51"
          },
          {
            "height": 0.75,
            "iconName": "go-next-symbolic",
            "keyval": "0xff53"
          }
        ],
        [
          {
            "strings": [
              "Q"
            ]
          },
          {
            "strings": [
              "W"
            ]
          },
          {
            "strings": [
              "E"
            ]
          },
          {
            "strings": [
              "R"
            ]
          },
          {
            "strings": [
              "T"
            ]
          },
          {
            "strings": [
              "Y"
            ]
          },
          {
            "strings": [
              "U",
              "Ü",
              "Û",
              "Ù",
              "Ú",
              "Ū"
            ]
          },
          {
            "strings": [
              "İ",
              "I",
              "Î",
              "Ï",
              "Ì",
              "Í",
              "Į",
              "Ī"
            ]
          },
          {
            "strings": [
              "O",
              "Ö",
              "Ô",
              "Œ",
              "Ò",
              "Ó",
              "Õ",
              "Ø",
              "Ō"
            ]
          },
          {
            "strings": [
              "P"
            ]
          }
        ],
        [
          {
            "leftOffset": 0.5,
            "strings": [
              "A",
              "Â"
            ]
          },
          {
            "strings": [
              "S",
              "Ş",
              "SS",
              "Ś",
              "Š"
            ]
          },
          {
            "strings": [
              "D"
            ]
          },
          {
            "strings": [
              "F"
            ]
          },
          {
            "strings": [
              "G",
              "Ğ"
            ]
          },
          {
            "strings": [
              "H"
            ]
          },
          {
            "strings": [
              "J"
            ]
          },
          {
            "strings": [
              "K"
            ]
          },
          {
            "rightOffset": 0.5,
            "strings": [
              "L"
            ]
          }
        ],
        [
          {
            "action": "levelSwitch",
            "iconName": "keyboard-shift-symbolic",
            "level": "default",
            "width": 1.5
          },
          {
            "strings": [
              "Z"
            ]
          },
          {
            "strings": [
              "X"
            ]
          },
          {
            "strings": [
              "C",
              "Ç",
              "Ć",
              "Č"
            ]
          },
          {
            "strings": [
              "V"
            ]
          },
          {
            "strings": [
              "B"
            ]
          },
          {
            "strings": [
              "N"
            ]
          },
          {
            "strings": [
              "M"
            ]
          },
          {
            "action": "delete",
            "iconName": "edit-clear-symbolic",
            "width": 1.5
          }
        ],
        [
          {
            "action": "levelSwitch",
            "label": "123",
            "level": "opt",
            "width": 1.5
          },
          {
            "action": "emoji",
            "iconName": "smile-symbolic"
          },
          {
            "strings": [
              ","
            ]
          },
          {
            "strings": [
              " "
            ],
            "width": 3
          },
          {
            "strings": [
              ".",
              "#",
              "!",
              ",",
              "?",
              "-",
              ":",
              "'",
              "@"
            ]
          },
          {
            "action": "languageMenu",
            "iconName": "keyboard-layout-symbolic"
          },
          {
            "iconName": "keyboard-enter-symbolic",
            "keyval": "0xff0d",
            "width": 1.5
          }
        ]
      ]
    },
    {
      "level": "opt",
      "mode": "locked",
      "rows": [
        [
          {
            "height": 0.75,
            "keyval": "0xff09",
            "label": "Tab",
            "width": 2
          },
          {
            "action": "modifier",
            "height": 0.75,
            "keyval": "0xffe3",
            "label": "Ctrl",
            "width": 2
          },
          {
            "action": "modifier",
            "height": 0.75,
            "keyval": "0xffe9",
            "label": "Alt",
            "width": 2
          },
          {
            "height": 0.75,
            "iconName": "go-up-symbolic",
            "keyval": "0xff52"
          },
          {
            "height": 0.75,
            "iconName": "go-down-symbolic",
            "keyval": "0xff54"
          },
          {
            "height": 0.75,
            "iconName": "go-previous-symbolic",
            "keyval": "0xff51"
          },
          {
            "height": 0.75,
            "iconName": "go-next-symbolic",
            "keyval": "0xff53"
          }
        ],
        [
          {
            "strings": [
              "1",
              "¹",
              "½",
              "⅓",
              "¼",
              "⅛"
            ]
          },
          {
            "strings": [
              "2",
              "²",
              "⅔"
            ]
          },
          {
            "strings": [
              "3",
              "³",
              "¾",
              "⅜"
            ]
          },
          {
            "strings": [
              "4",
              "⁴"
            ]
          },
          {
            "strings": [
              "5",
              "⅝"
            ]
          },
          {
            "strings": [
              "6"
            ]
          },
          {
            "strings": [
              "7",
              "⅞"
            ]
          },
          {
            "strings": [
              "8"
            ]
          },
          {
            "strings": [
              "9"
            ]
          },
          {
            "strings": [
              "0",
              "ⁿ",
              "∅"
            ]
          }
        ],
        [
          {
            "strings": [
              "@"
            ]
          },
          {
            "strings": [
              "#"
            ]
          },
          {
            "strings": [
              "€",
              "¢",
              "£",
              "$",
              "¥",
              "₱"
            ]
          },
          {
            "strings": [
              "%",
              "‰"
            ]
          },
          {
            "strings": [
              "&"
            ]
          },
          {
            "strings": [
              "-",
              "_",
              "–",
              "—",
              "·"
            ]
          },
          {
            "strings": [
              "+",
              "±"
            ]
          },
          {
            "strings": [
              "(",
              "<",
              "{",
              "["
            ]
          },
          {
            "strings": [
              ")",
              ">",
              "}",
              "]"
            ]
          },
          {
            "strings": [
              "/"
            ]
          }
        ],
        [
          {
            "action": "levelSwitch",
            "label": "=/<",
            "level": "opt+shift",
            "width": 1.5
          },
          {
            "strings": [
              "*",
              "†",
              "‡",
              "★"
            ]
          },
          {
            "strings": [
              "\"",
              "“",
              "”",
              "«",
              "»"
            ]
          },
          {
            "strings": [
              "'",
              "‘",
              "’",
              "‹",
              "›"
            ]
          },
          {
            "strings": [
              ":"
            ]
          },
          {
            "strings": [
              ";"
            ]
          },
          {
            "strings": [
              "!",
              "¡"
            ]
          },
          {
            "strings": [
              "?",
              "¿"
            ]
          },
          {
            "action": "delete",
            "iconName": "edit-clear-symbolic",
            "width": 1.5
          }
        ],
        [
          {
            "action": "levelSwitch",
            "label": "ABC",
            "level": "default",
            "width": 1.5
          },
          {
            "action": "emoji",
            "iconName": "smile-symbolic"
          },
          {
            "strings": [
              ","
            ]
          },
          {
            "strings": [
              " "
            ],
            "width": 3
          },
          {
            "strings": [
              ".",
              "…"
            ]
          },
          {
            "action": "languageMenu",
            "iconName": "keyboard-layout-symbolic"
          },
          {
            "iconName": "keyboard-enter-symbolic",
            "keyval": "0xff0d",
            "width": 1.5
          }
        ]
      ]
    },
    {
      "level": "opt+shift",
      "mode": "locked",
      "rows": [
        [
          {
            "height": 0.75,
            "keyval": "0xff09",
            "label": "Tab",
            "width": 2
          },
          {
            "action": "modifier",
            "height": 0.75,
            "keyval": "0xffe3",
            "label": "Ctrl",
            "width": 2
          },
          {
            "action": "modifier",
            "height": 0.75,
            "keyval": "0xffe9",
            "label": "Alt",
            "width": 2
          },
          {
            "height": 0.75,
            "iconName": "go-up-symbolic",
            "keyval": "0xff52"
          },
          {
            "height": 0.75,
            "iconName": "go-down-symbolic",
            "keyval": "0xff54"
          },
          {
            "height": 0.75,
            "iconName": "go-previous-symbolic",
            "keyval": "0xff51"
          },
          {
            "height": 0.75,
            "iconName": "go-next-symbolic",
            "keyval": "0xff53"
          }
        ],
        [
          {
            "strings": [
              "~"
            ]
          },
          {
            "strings": [
              "`"
            ]
          },
          {
            "strings": [
              "|"
            ]
          },
          {
            "strings": [
              "•",
              "♪",
              "♥",
              "♠",
              "♦",
              "♣"
            ]
          },
          {
            "strings": [
              "√"
            ]
          },
          {
            "strings": [
              "Π",
              "π"
            ]
          },
          {
            "strings": [
              "÷"
            ]
          },
          {
            "strings": [
              "×"
            ]
          },
          {
            "strings": [
              "¶",
              "§"
            ]
          },
          {
            "strings": [
              "∆"
            ]
          }
        ],
        [
          {
            "strings": [
              "£"
            ]
          },
          {
            "strings": [
              "¥"
            ]
          },
          {
            "strings": [
              "$",
              "¢"
            ]
          },
          {
            "strings": [
              "¢"
            ]
          },
          {
            "strings": [
              "^",
              "↑",
              "↓",
              "←",
              "→"
            ]
          },
          {
            "strings": [
              "_"
            ]
          },
          {
            "strings": [
              "=",
              "≠",
              "≈",
              "∞"
            ]
          },
          {
            "strings": [
              "{"
            ]
          },
          {
            "strings": [
              "}"
            ]
          },
          {
            "strings": [
              "\\"
            ]
          }
        ],
        [
          {
            "action": "levelSwitch",
            "label": "123",
            "level": "opt",
            "width": 1.5
          },
          {
            "strings": [
              "°",
              "′",
              "″"
            ]
          },
          {
            "strings": [
              "©"
            ]
          },
          {
            "strings": [
              "®"
            ]
          },
          {
            "strings": [
              "™"
            ]
          },
          {
            "strings": [
              "℅"
            ]
          },
          {
            "strings": [
              "["
            ]
          },
          {
            "strings": [
              "]"
            ]
          },
          {
            "action": "delete",
            "iconName": "edit-clear-symbolic",
            "width": 1.5
          }
        ],
        [
          {
            "action": "levelSwitch",
            "label": "ABC",
            "level": "default",
            "width": 1.5
          },
          {
            "action": "emoji",
            "iconName": "smile-symbolic"
          },
          {
            "strings": [
              "<",
              "‹",
              "≤",
              "«"
            ]
          },
          {
            "strings": [
              " "
            ],
            "width": 3
          },
          {
            "strings": [
              ">",
              "›",
              "≥",
              "»"
            ]
          },
          {
            "action": "languageMenu",
            "iconName": "keyboard-layout-symbolic"
          },
          {
            "iconName": "keyboard-enter-symbolic",
            "keyval": "0xff0d",
            "width": 1.5
          }
        ]
      ]
    }
  ],
  "locale": "tr",
  "name": "Turkish"
}